module gitlab.com/cinco

go 1.18

require (
	github.com/go-playground/validator/v10 v10.11.0
	github.com/gofiber/fiber/v2 v2.36.0
	github.com/gofiber/template v1.6.30
	golang.org/x/crypto v0.0.0-20220214200702-86341886e292
	gopkg.in/gomail.v2 v2.0.0-20160411212932-81ebce5c23df
	gorm.io/driver/postgres v1.3.8
)

require (
	github.com/go-playground/locales v0.14.0 // indirect
	github.com/go-playground/universal-translator v0.18.0 // indirect
	github.com/jackc/chunkreader/v2 v2.0.1 // indirect
	github.com/jackc/pgconn v1.12.1 // indirect
	github.com/jackc/pgio v1.0.0 // indirect
	github.com/jackc/pgpassfile v1.0.0 // indirect
	github.com/jackc/pgproto3/v2 v2.3.0 // indirect
	github.com/jackc/pgservicefile v0.0.0-20200714003250-2b9c44734f2b // indirect
	github.com/jackc/pgtype v1.11.0 // indirect
	github.com/jackc/pgx/v4 v4.16.1 // indirect
	github.com/jinzhu/inflection v1.0.0 // indirect
	github.com/jinzhu/now v1.1.4 // indirect
	github.com/leodido/go-urn v1.2.1 // indirect
	golang.org/x/text v0.3.7 // indirect
	gopkg.in/alexcesaro/quotedprintable.v3 v3.0.0-20150716171945-2caba252f4dc // indirect
)

require (
	github.com/andybalholm/brotli v1.0.4 // indirect
	github.com/golang-jwt/jwt/v4 v4.4.2
	github.com/google/uuid v1.3.0
	github.com/joho/godotenv v1.4.0
	github.com/klauspost/compress v1.15.9 // indirect
	github.com/valyala/bytebufferpool v1.0.0 // indirect
	github.com/valyala/fasthttp v1.38.0 // indirect
	github.com/valyala/tcplisten v1.0.0 // indirect
	golang.org/x/sys v0.0.0-20220808155132-1c4a2a72c664 // indirect
	gorm.io/gorm v1.23.8
)
